Home · GBIF2.jl
…
source
GBIF2.species — Function
species(key; kw...)
species(key, resulttype; kw...)
Query the GBIF species api, returning a single Species.
key: a species key, or Species object from another search that a key can be   obtained from.
resulttype: set this so that instead of a Species, species will return an   object in (:verbatim, :name, :parents, :children, :related, :synonyms, :combinations, :descriptions, :distributions, :media, :references, :speciesProfiles, :vernacularNames, :typeSpecimens). The return value will be a raw JSON3.Object,   but itspropertynames` can be checked and used to access data.
Example
Here we find a species with species_search, and then obtain the complete record with species.

julia> using GBIF2
julia> tbl = species_search("Falco punctatus")
20-element GBIF2.Table{GBIF2.Species, JSON3.Array{JSON3.Object, Vector{UInt8}, SubArray{
UInt64, 1, Vector{UInt64}, Tuple{UnitRange{Int64}}, true}}}
┌──────────┬──────────┬───────────────┬───────────────┬────────────┬─────────┬──────────
│  kingdom │   phylum │         class │         order │     family │   genus │         ⋯
│  String? │  String? │       String? │       String? │    String? │ String? │         ⋯
├──────────┼──────────┼───────────────┼───────────────┼────────────┼─────────┼──────────
│ Animalia │  missing │          Aves │ Falconiformes │ Falconidae │ missing │ Falco p ⋯
│ Animalia │  missing │          Aves │       missing │ Falconidae │   Falco │ Falco p ⋯
│  missing │  missing │          Aves │ Falconiformes │ Falconidae │   Falco │ Falco p ⋯
│  missing │ Chordata │       missing │       missing │ Falconidae │   Falco │ Falco p ⋯
│ Animalia │ Chordata │          Aves │ Falconiformes │ Falconidae │   Falco │ Falco p ⋯
│ Animalia │ Chordata │          Aves │ Falconiformes │ Falconidae │   Falco │ Falco p ⋯
│  Metazoa │ Chordata │          Aves │ Falconiformes │ Falconidae │   Falco │ Falco p ⋯
│ Animalia │  missing │       missing │ Falconiformes │ Falconidae │ missing │ Falco p ⋯
│  Metazoa │ Chordata │          Aves │ Falconiformes │ Falconidae │   Falco │ Falco p ⋯
│    ⋮     │    ⋮     │       ⋮       │       ⋮       │     ⋮      │    ⋮    │         ⋱
└──────────┴──────────┴───────────────┴───────────────┴────────────┴─────────┴──────────
                                                          35 columns and 11 rows omitted
…
source
GBIF2.species_search — Function
species_search([q]; kw...)
Query the GBIF species/search api, returning many results in a GBIF2.Table.
Example

using GBIF2
sp = species_search("Psittacula eques")

# output
20-element GBIF2.Table{GBIF2.Species, JSON3.Array{JSON3.Object, Vector{UInt8}, SubArray{UInt64, 1,
Vector{UInt64}, Tuple{UnitRange{Int64}}, true}}}
┌──────────┬──────────┬────────────────┬────────────────┬───────────────┬──────────────┬───────────
│  kingdom │   phylum │          class │          order │        family │        genus │          ⋯
│  String? │  String? │        String? │        String? │       String? │      String? │          ⋯
├──────────┼──────────┼────────────────┼────────────────┼───────────────┼──────────────┼───────────
│ Animalia │ Chordata │           Aves │ Psittaciformes │ Psittaculidae │   Psittacula │   Psitta ⋯
│ Animalia │  missing │           Aves │ Psittaciformes │ Psittaculidae │      missing │          ⋯
│  Metazoa │ Chordata │           Aves │ Psittaciformes │   Psittacidae │   Psittacula │   Psitta ⋯
│ Animalia │  missing │           Aves │ Psittaciformes │ Psittaculidae │      missing │   Psitta ⋯
│ Animalia │  missing │           Aves │ Psittaciformes │ Psittaculidae │      missing │          ⋯
│ Animalia │  missing │        missing │ Psittaciformes │ Psittaculidae │      missing │   Psitta ⋯
│  Metazoa │ Chordata │           Aves │ Psittaciformes │   Psittacidae │   Psittacula │   Psitta ⋯
│  missing │  missing │        missing │        missing │       missing │   Psittacula │   Psitta ⋯
│ Animalia │ Chordata │           Aves │ Psittaciformes │ Psittaculidae │   Psittacula │   Psitta ⋯
│ Animalia │  missing │           Aves │        missing │   Psittacidae │   Psittacula │   Psitta ⋯
│  Metazoa │ Chordata │           Aves │ Psittaciformes │   Psittacidae │   Psittacula │    Psitt ⋯
│ Animalia │ Chordata │           Aves │ Psittaciformes │ Psittaculidae │   Psittacula │   Psitta ⋯
│ ANIMALIA │ CHORDATA │ PSITTACIFORMES │           AVES │   PSITTACIDAE │ Alexandrinus │ Alexandr ⋯
│  Metazoa │ Chordata │           Aves │ Psittaciformes │   Psittacidae │   Psittacula │    Psitt ⋯
│ Animalia │ Chordata │           Aves │ Psittaciformes │   Psittacidae │   Psittacula │   Psitta ⋯
│ Animalia │  missing │           Aves │ Psittaciformes │ Psittaculidae │   Psittacula │   Psitta ⋯
│    ⋮     │    ⋮     │       ⋮        │       ⋮        │       ⋮       │      ⋮       │          ⋱
└──────────┴──────────┴────────────────┴────────────────┴───────────────┴──────────────┴───────────
                                                                      35 columns and 4 rows omitted
…
